<?xml version="1.0" encoding="UTF-8"?>
<!DOCTYPE svg PUBLIC "-//W3C//DTD SVG 1.1//EN" "http://www.w3.org/Graphics/SVG/1.1/DTD/svg11.dtd">
<!-- Creator: CorelDRAW 2019 (64-Bit) -->
<svg xmlns="http://www.w3.org/2000/svg" xml:space="preserve" width="4.33895in" height="3.63935in" version="1.1" style="shape-rendering:geometricPrecision; text-rendering:geometricPrecision; image-rendering:optimizeQuality; fill-rule:evenodd; clip-rule:evenodd"
viewBox="0 0 13537.4 11354.7"
 xmlns:xlink="http://www.w3.org/1999/xlink"
 xmlns:xodm="http://www.corel.com/coreldraw/odm/2003">
 <metadata>
  <rdf:RDF xmlns:rdf="http://www.w3.org/1999/02/22-rdf-syntax-ns#" xmlns:schema="http://schema.org/">
    <rdf:Description rdf:about="">
      <schema:copyrightNotice rdf:resource="Copyright 2022 Three Twins Productions, Inc. All rights reserved."/>
    </rdf:Description>
  </rdf:RDF>
</metadata>
 <defs>
  <style type="text/css">
   <![CDATA[
    .fil-decoport-main-network-hub {fill:white}
    .fil-decoport-main-network-hub-outline {fill:#112233}
    .fil-decoport-main-network-outline {fill:#112233}
    .fil-decoport-main-network-node {fill:#522994}
    .fil-decoport-main-banner {fill:white}
    .fil-decoport-main-banner-outline {fill:#77B3DB}
    .fil-decoport-main-circle {fill:#CBE2F2}
    .fil-decoport-main-circle-outline {fill:#522994}
    .fil-decoport-main-decoport {fill:#112233}
   ]]>
  </style>
 </defs>
 <g id="Layer_x0020_1">
  <metadata id="CorelCorpID_0Corel-Layer"/>
  <g id="_1874489194448">
   <circle class="fil-decoport-main-circle" cx="6768.7" cy="5695.5" r="5659.2"/>
   <path class="fil-decoport-main-circle-outline" d="M2232.2 7841.7l5.9 -11.2c775.3,854.3 1814.8,1464.4 2989.6,1701 -483.5,-486.4 -876.8,-1062.4 -1152.9,-1701l938.5 0c248.8,673.7 625.4,1285.3 1100.4,1805.8 69.3,2.6 138.8,4 208.7,4 1149,0 2215.7,-351.6 3098.9,-952.8 -790.8,712.1 -1788.6,1198.7 -2892.3,1358.4 342.1,303.7 722.3,565.4 1132.4,777.2 1743.9,-162.5 3252,-1136.9 4142.5,-2541.7 -939.2,1825.1 -2841.4,3073.4 -5035.3,3073.4 -2370.1,0 -4399.9,-1457 -5242.6,-3524.2l700.4 0c1.9,3.7 3.9,7.4 5.8,11.2zm4036.6 -7326.8c-2059.8,344.3 -3658.5,1793.9 -4290.8,3640.1l-669.4 0c560.9,-2055.5 2269.3,-3702.7 4508.7,-4077 2154.3,-360 4227.1,553.6 5448.8,2191.6 -1213,-1353.9 -3071.8,-2076.6 -4997.4,-1754.7zm1032.6 10329.9c-508.6,-179.7 -983,-431.9 -1410.7,-744.2 -52.4,1.5 -104.9,2.3 -157.7,2.3 -644.3,0 -1262.8,-110.6 -1837.6,-313.8 911,665.3 2033.7,1058 3248.2,1058 52.8,0 105.4,-0.9 157.8,-2.4z"/>
   <g>
    <path class="fil-decoport-main-banner-outline" d="M417.9 4153.8l11364.5 0c482.8,0 921.6,197.4 1239.6,515.4 318,318 515.4,756.8 515.4,1239.6l0 1505c0,114.6 -47.3,219.2 -123.4,295.3 -75.7,75.6 -179.9,122.6 -294.5,122.6l-12701.6 0c-115.1,0 -219.7,-46.9 -295.3,-122.6l0.4 -0.4c-75.9,-76.1 -123,-180.5 -123,-294.9l0 -2842.2c0,-114.4 47.1,-218.8 123,-294.9l-0.4 -0.4c75.6,-75.6 180.1,-122.6 295.3,-122.6z"/>
    <path class="fil-decoport-main-banner" d="M417.9 4348.8l11364.5 0c857.9,0 1560,702 1560,1560l0 1505c0,122.6 -100.3,222.8 -222.9,222.8l-12701.6 0c-122.6,0 -222.9,-100.3 -222.9,-222.8l0 -2842.2c0,-122.6 100.3,-222.8 222.9,-222.8z"/>
    <g>
     <path class="fil-decoport-main-decoport" d="M1146.7 7429.6l-625.3 0 0 -2816.3c398.7,-13.8 649.6,-21 752,-21 410.5,0 735.6,120.2 976,360.6 240.4,240.4 360.6,559.6 360.6,957 0,1013.4 -488,1519.8 -1463.4,1519.8zm-124.8 -2378.3l0 1921.1c80.8,7.9 167.5,11.8 261.4,11.8 252.2,0 449.9,-91.3 592.4,-274.5 142.5,-183.2 214.1,-439.4 214.1,-769.1 0,-602.3 -279.8,-903.1 -839.4,-903.1 -53.9,0 -130.1,4.6 -228.6,13.8z"/>
     <path class="fil-decoport-main-decoport" d="M4180.9 6750.6l-1132.7 0c7.1,126.3 50.5,224.8 130.4,295 79.8,70.2 187.4,105.1 322.8,105.1 169.3,0 297.6,-43.5 385.5,-130.4l143.5 281.9c-130.4,105.1 -324.4,157.6 -583,157.6 -241.5,0 -432.5,-70.7 -573.4,-212.7 -140.5,-141.5 -210.7,-339.5 -210.7,-593.1 0,-250.1 77.3,-452.7 231.4,-607.8 154.6,-155.1 339.5,-232.4 555.8,-232.4 229.9,0 414.3,68.7 553.2,206.1 138.9,137.4 208.7,312.2 208.7,524.4 0,45.5 -10.6,114.2 -31.3,206.1zm-1117.6 -278.9l776 0c-25.8,-232.4 -153.6,-348.6 -383.5,-348.6 -210.7,0 -341.5,116.2 -392.6,348.6z"/>
     <path class="fil-decoport-main-decoport" d="M5649.8 5968.5l-158.1 275.8c-86.9,-80.8 -203.1,-121.2 -349.1,-121.2 -139.9,0 -250.6,46.5 -331.9,139.9 -81.3,93.5 -121.8,222.8 -121.8,388 0,332.9 158.1,499.7 474.9,499.7 136.9,0 257.7,-45.5 362.2,-136.4l135.9 291c-107.6,67.2 -201.6,110.1 -281.9,127.8 -80.3,17.7 -175.3,26.8 -284.4,26.8 -245,0 -438,-71.2 -579.5,-214.2 -141.5,-142.5 -212.2,-341 -212.2,-594.7 0,-250.1 77.3,-452.2 232.4,-606.3 154.6,-154.1 365.8,-230.9 633,-230.9 184.4,0 344.6,51.5 480.5,154.6z"/>
     <path class="fil-decoport-main-decoport" d="M5722.5 6633.4c0,-242 69.7,-439 209.2,-591.1 139.5,-152.1 323.9,-228.4 552.7,-228.4 240.5,0 426.9,73.3 560.3,219.3 132.9,146 199.6,346.1 199.6,600.2 0,252.6 -67.7,453.7 -203.1,602.7 -135.9,149 -321.3,223.8 -556.8,223.8 -241,0 -427.9,-75.3 -561.3,-225.8 -133.9,-150.6 -200.6,-351.1 -200.6,-600.7zm385 0c0,349.1 125.8,523.4 376.9,523.4 115.2,0 206.1,-45.5 273.8,-135.9 67.2,-90.9 101,-220.3 101,-387.5 0,-344.1 -124.8,-516.3 -374.9,-516.3 -115.7,0 -207.1,45.5 -274.8,135.9 -68.2,90.9 -102.1,217.7 -102.1,380.4z"/>
     <path class="fil-decoport-main-decoport" d="M7935 6391.2l0 1038.4 -500.5 0 0 -2816.3c333.7,-13.8 528.7,-21 585.2,-21 446,0 771.7,68.3 977.3,204.9 206.3,136.6 309.4,349.4 309.4,639.1 0,645.6 -381.6,968.8 -1144.1,968.8 -56.5,0 -132,-4.6 -227.3,-13.8zm0 -1343.8l0 898.5c84.7,9.2 151.7,13.8 200.3,13.8 228.6,0 395.4,-38.1 501.1,-114.3 105.1,-75.5 157.6,-199.7 157.6,-370.4 0,-291.6 -235.8,-437.4 -706.7,-437.4 -52.5,0 -103.8,3.3 -152.4,9.9z"/>
     <path class="fil-decoport-main-decoport" d="M9121.9 6633.4c0,-242 69.7,-439 209.2,-591.1 139.5,-152.1 323.9,-228.4 552.7,-228.4 240.5,0 426.9,73.3 560.3,219.3 132.9,146 199.6,346.1 199.6,600.2 0,252.6 -67.7,453.7 -203.1,602.7 -135.9,149 -321.3,223.8 -556.8,223.8 -241,0 -427.9,-75.3 -561.3,-225.8 -133.9,-150.6 -200.6,-351.1 -200.6,-600.7zm385 0c0,349.1 125.8,523.4 376.9,523.4 115.2,0 206.1,-45.5 273.8,-135.9 67.2,-90.9 101,-220.3 101,-387.5 0,-344.1 -124.8,-516.3 -374.9,-516.3 -115.7,0 -207.1,45.5 -274.8,135.9 -68.2,90.9 -102.1,217.7 -102.1,380.4z"/>
     <path class="fil-decoport-main-decoport" d="M11724.2 6189.8c-66.2,-44.5 -138.4,-66.7 -217.3,-66.7 -85.9,0 -162.2,38.9 -228.9,117.2 -66.7,77.8 -100,173.3 -100,286l0 903.4 -369.8 0 0 -1585.4 369.8 0 0 145.5c103.6,-117.2 241.5,-175.8 413.3,-175.8 126.3,0 222.8,19.2 290,58.1l-157.1 317.8z"/>
     <path class="fil-decoport-main-decoport" d="M12155 6141.3l-184.9 0 0 -297.1 184.9 0 0 -321.8 369.8 -135.9 0 457.7 436.5 0 0 297.1 -436.5 0 0 695.2c0,113.7 17.7,194 53.6,241 35.9,47 98,70.2 187.4,70.2 89.4,0 172.8,-24.2 250.1,-72.8l0 340.5c-85.9,29.8 -208.7,44.5 -368.3,44.5 -158.1,0 -279.9,-44.5 -364.8,-133.9 -85.4,-89.4 -127.8,-216.7 -127.8,-382l0 -802.8z"/>
    </g>
   </g>
   <g>
    <path class="fil-decoport-main-network-outline" d="M3645.4 4827.2l1898.8 -3182.7 148.3 88.7 -1898.8 3182.7 -148.3 -88.7zm3164.3 -3767.4l2003.8 338.4 -28.4 170.6 -2003.8 -338.4 28.4 -170.6zm4325.6 2515.9l-4444.5 -2142.5 75.1 -155.7 4444.5 2142.5 -75.1 155.7zm-4615.7 -1948l1284 1989.8 -145.6 93.4 -1284 -1989.8 145.6 -93.4zm-488.9 1756.4l-64.3 -1581.4 172.7 -6.8 64.3 1581.4 -172.7 6.8zm-610.1 -1855.4l-1348.3 920.3 -97.5 -142.9 1348.3 -920.3 97.5 142.9z"/>
    <g>
     <circle class="fil-decoport-main-network-node" transform="matrix(-0.855867 0.229329 -0.229329 -0.855867 11172.9 3497.91)" r="345.1"/>
     <circle class="fil-decoport-main-network-node" transform="matrix(-0.855867 0.229329 -0.229329 -0.855867 7730.77 3664.23)" r="345.1"/>
     <circle class="fil-decoport-main-network-node" transform="matrix(-0.855867 0.229329 -0.229329 -0.855867 6117.03 3380.74)" r="345.1"/>
     <circle class="fil-decoport-main-network-node" transform="matrix(-0.855867 0.229329 -0.229329 -0.855867 4023.53 2377.61)" r="345.1"/>
     <circle class="fil-decoport-main-network-node" transform="matrix(-0.855867 0.229329 -0.229329 -0.855867 8799.33 1483.5)" r="345.1"/>
     <circle class="fil-decoport-main-network-node" transform="matrix(-0.855867 0.229329 -0.229329 -0.855867 3719.51 4871.56)" r="345.1"/>
    </g>
    <circle class="fil-decoport-main-network-hub" transform="matrix(-2.19886 0.589184 -0.589184 -2.19886 6020.76 1014.31)" r="345.1"/>
    <path class="fil-decoport-main-network-hub-outline" d="M6190.5 1647.6c175,-46.9 314.4,-160.2 398.3,-305.6l0.2 0.1c83.7,-145.2 112,-322.5 65.1,-497.6l1.2 -0.3 -1.2 0.3c-46.9,-175.2 -160.1,-314.6 -305.1,-398.3l-0.5 0c-145.1,-83.8 -322.5,-112.2 -497.5,-65.3 -175,46.9 -314.4,160.2 -398.3,305.6 -83.8,145.2 -112.2,322.5 -65.3,497.6 46.9,175 160.2,314.4 305.6,398.3 145.1,83.8 322.5,112.2 497.6,65.3zm67 250.9c-244,65.4 -491.6,25.6 -694.6,-91.6 -202.8,-117.1 -361,-311.6 -426.4,-555.7 -65.4,-244 -25.6,-491.6 91.7,-694.6 117.1,-202.8 311.6,-361 555.7,-426.4 244,-65.4 491.6,-25.5 694.6,91.7l-0.1 0.2c203,117.3 361.2,311.8 426.6,555.5 65.3,243.8 25.5,491.2 -91.7,694.1l0 0.5c-117.1,202.8 -311.6,361 -555.7,426.4l-0.3 -1.2 0.3 1.2z"/>
   </g>
  </g>
 </g>
</svg>
